Model Evaluation
…
FULL MODEL: USING trained workflow to predict unseen test data

# Using the trained workflow (flu_fit) to predict with the unseen test data
predict(flu_fit, test_data)

# A tibble: 26,745 × 1
   .pred_class
   <fct>      
 1 no         
 2 yes        
 3 no         
 4 no         
 5 yes        
 6 no         
 7 no         
 8 yes        
 9 no         
10 yes        
# ℹ 26,735 more rows

# Using argument() with the model plus test data for saving them together
flu_aug <- 
  augment(flu_fit, test_data)
  
flu_aug %>%
  select(flu_vaccine, .pred_no, .pred_yes)

# A tibble: 26,745 × 3
   flu_vaccine .pred_no .pred_yes
   <fct>          <dbl>     <dbl>
 1 no             0.675     0.325
 2 yes            0.317     0.683
 3 no             0.549     0.451
 4 no             0.689     0.311
 5 yes            0.406     0.594
 6 no             0.644     0.356
 7 no             0.665     0.335
 8 yes            0.492     0.508
 9 no             0.809     0.191
10 no             0.273     0.727
# ℹ 26,735 more rows
…
# A tibble: 4 × 5
  term                estimate std.error statistic  p.value
  <chr>                  <dbl>     <dbl>     <dbl>    <dbl>
1 (Intercept)          -0.152    0.00787    -19.2  1.51e-82
2 raceblack            -0.344    0.0220     -15.6  7.25e-55
3 racenative american  -0.122    0.0690      -1.77 7.69e- 2
4 raceasian             0.0964   0.0310       3.11 1.86e- 3

ALTERNATIVE MODEL: USING TRAINED WORKFLOW TO PREDICT

# Using the trained data to predict with the unseen test data
predict(flu_fit2, test_data)

# A tibble: 26,745 × 1
   .pred_class
   <fct>      
 1 no         
 2 no         
 3 no         
 4 no         
 5 no         
 6 no         
 7 no         
 8 no         
 9 no         
10 no         
# ℹ 26,735 more rows

# Using argument() with the model plus test data for saving them together
flu_aug2 <- 
  augment(flu_fit2, test_data)
  
flu_aug2 %>%
  select(flu_vaccine, .pred_no, .pred_yes)

# A tibble: 26,745 × 3
   flu_vaccine .pred_no .pred_yes
   <fct>          <dbl>     <dbl>
 1 no             0.514     0.486
 2 yes            0.538     0.462
 3 no             0.538     0.462
 4 no             0.538     0.462
 5 yes            0.538     0.462
 6 no             0.538     0.462
 7 no             0.538     0.462
 8 yes            0.621     0.379
 9 no             0.621     0.379
10 no             0.538     0.462
# ℹ 26,735 more rows
…
